\relax 
\providecommand*{\memsetcounter}[2]{}
\catcode`"\active
\catcode`:\active
\catcode`;\active
\catcode`!\active
\catcode`?\active
\select@language{brazilian}
\@writefile{toc}{\select@language{brazilian}}
\@writefile{lof}{\select@language{brazilian}}
\@writefile{lot}{\select@language{brazilian}}
\@input{INPUTS.aux}
\newlabel{LastPage}{{}{7}}
\xdef\lastpage@lastpage{7}
\gdef\lastpage@lastpageHy{}
\memsetcounter{lastsheet}{8}
\memsetcounter{lastpage}{8}
